<?xml version="1.0" encoding="UTF-8" standalone="no"?>
<svg width="14px" height="12px" viewBox="0 0 14 12" version="1.1" xmlns="http://www.w3.org/2000/svg" xmlns:xlink="http://www.w3.org/1999/xlink">
    <!-- Generator: sketchtool 3.8.3 (29802) - http://www.bohemiancoding.com/sketch -->
    <title>95BF70B2-60E3-4788-B073-5D61FAB78642</title>
    <desc>Created with sketchtool.</desc>
    <defs></defs>
    <g id="Registered-STH" stroke="none" stroke-width="1" fill="none" fill-rule="evenodd">
        <g id="Registered---STH" transform="translate(-153.000000, -437.000000)" fill="#333333">
            <g id="Saved-store-addresses" transform="translate(133.000000, 431.000000)">
                <g id="addrs" transform="translate(3.000000, 0.000000)">
                    <g id="home" transform="translate(17.000000, 6.000000)">
                        <path d="M11.4964026,11.8399237 L7.92241973,11.8399237 C7.65046327,11.8399237 7.42929353,11.6184758 7.42929353,11.3461856 L7.42929353,8.31683884 L5.9508606,8.31683884 L5.9508606,11.3461856 C5.9508606,11.6184758 5.72963524,11.8399237 5.45773441,11.8399237 L1.8687325,11.8399237 C1.59683168,11.8399237 1.37560631,11.6184758 1.37560631,11.3461856 L1.37560631,7.51754609 L0.493430533,7.51754609 C0.292675606,7.51754609 0.113670521,7.39750477 0.0373513852,7.21165766 C-0.0391346288,7.02542117 0.00397566997,6.81365226 0.147157488,6.6720836 L1.51111172,5.32704228 L1.51111172,2.11234901 C1.51111172,1.84011443 1.73233708,1.61861093 2.00423791,1.61861093 L4.03854337,1.61861093 C4.3104442,1.61861093 4.53166957,1.84011443 4.53166957,2.11234901 C4.53166957,2.19979339 4.53172519,2.28189765 4.53178082,2.35860617 C5.05539016,1.82615226 5.84372456,1.02057374 6.43464159,0.415638907 C6.53126429,0.319850604 6.65419817,0.269230769 6.78475285,0.269230769 C6.91686505,0.269230769 7.04547281,0.323577559 7.13775666,0.41836459 L13.2111912,6.679315 C13.3496448,6.82105054 13.3896956,7.03198506 13.3123196,7.21571837 C13.2351104,7.39911793 13.0567729,7.51760172 12.8580761,7.51760172 L11.9892506,7.51760172 L11.9892506,11.3462413 C11.98964,11.4772966 11.9385195,11.6015099 11.84529,11.6950175 C11.7521718,11.7884695 11.6282366,11.8399237 11.4964026,11.8399237 L11.4964026,11.8399237 Z M8.09680784,11.1724094 L11.3217363,11.1724094 L11.3217363,7.34382549 C11.3217363,7.07159091 11.5429061,6.85008741 11.8148069,6.85008741 L12.4468873,6.85008741 L6.78436346,1.0128417 C6.57437459,1.22767006 6.12752939,1.68475048 5.67973854,2.1418309 C5.37095755,2.45689765 5.06178718,2.77202003 4.82876906,3.00837572 C4.34281865,3.50133503 4.34281865,3.50133503 4.19802367,3.50133503 C4.10857675,3.50133503 4.02285679,3.46545613 3.96011044,3.40170852 C3.8973641,3.3379609 3.86287586,3.25174031 3.86426652,3.16229339 C3.86443339,3.13564844 3.86432214,2.57743961 3.86421089,2.28612524 L2.17862602,2.28612524 L2.17862602,5.39935633 C2.17862602,5.53124603 2.12483549,5.6596869 2.03104973,5.75174825 L0.917357742,6.85003179 L1.54999442,6.85003179 C1.82189525,6.85003179 2.04312062,7.07153528 2.04312062,7.34376987 L2.04312062,11.1724094 L5.2833463,11.1724094 L5.2833463,8.14311825 C5.2833463,7.87088366 5.50457166,7.64932454 5.77647249,7.64932454 L7.60373727,7.64932454 C7.87558247,7.64932454 8.09680784,7.87088366 8.09680784,8.14311825 L8.09680784,11.1724094 L8.09680784,11.1724094 Z"></path>
                    </g>
                </g>
            </g>
        </g>
    </g>
</svg>