<?xml version="1.0" encoding="UTF-8" standalone="no"?>
<svg width="20px" height="17px" viewBox="0 0 20 17" version="1.1" xmlns="http://www.w3.org/2000/svg" xmlns:xlink="http://www.w3.org/1999/xlink">
    <!-- Generator: Sketch 3.7 (28169) - http://www.bohemiancoding.com/sketch -->
    <title>appointment</title>
    <desc>Created with Sketch.</desc>
    <defs></defs>
    <g id="Shopping-Bag" stroke="none" stroke-width="1" fill="none" fill-rule="evenodd">
        <g id="Collapsed" transform="translate(-510.000000, -1204.000000)" fill="#333333">
            <g id="Item-#4" transform="translate(29.000000, 1122.000000)">
                <g id="Group" transform="translate(481.000000, 60.000000)">
                    <g id="appointment" transform="translate(0.408311, 22.000000)">
                        <path d="M13.6505646,3.8 C13.3905762,3.8 13.1798555,3.58735833 13.1798555,3.325 L13.1798555,0.475 C13.1798555,0.212641667 13.3905762,0 13.6505646,0 C13.9105529,0 14.1212737,0.212641667 14.1212737,0.475 L14.1212737,3.325 C14.1212737,3.58735833 13.9105529,3.8 13.6505646,3.8 Z M5.17780036,3.8 C4.91789047,3.8 4.70709124,3.58735833 4.70709124,3.325 L4.70709124,0.475 C4.70709124,0.212641667 4.91789047,0 5.17780036,0 C5.4377887,0 5.64850949,0.212641667 5.64850949,0.475 L5.64850949,3.325 C5.64850949,3.58735833 5.4377887,3.8 5.17780036,3.8 Z M15.062692,12.0316708 L16.0041102,12.0316708 L16.0041102,12.9833333 L15.062692,12.9833333 L15.062692,12.0316708 Z M12.6306948,12.0316708 L13.5721131,12.0316708 L13.5721131,12.9833333 L12.6306948,12.9833333 L12.6306948,12.0316708 Z M10.1986977,12.0316708 L11.1401159,12.0316708 L11.1401159,12.9833333 L10.1986977,12.9833333 L10.1986977,12.0316708 Z M7.68824902,12.0316708 L8.62966727,12.0316708 L8.62966727,12.9833333 L7.68824902,12.9833333 L7.68824902,12.0316708 Z M5.25625188,12.0316708 L6.19767013,12.0316708 L6.19767013,12.9833333 L5.25625188,12.9833333 L5.25625188,12.0316708 Z M2.82425474,12.0316708 L3.76567299,12.0316708 L3.76567299,12.9833333 L2.82425474,12.9833333 L2.82425474,12.0316708 Z M15.062692,8.54912917 L16.0041102,8.54912917 L16.0041102,9.50087083 L15.062692,9.50087083 L15.062692,8.54912917 Z M12.6306948,8.54912917 L13.5721131,8.54912917 L13.5721131,9.50087083 L12.6306948,9.50087083 L12.6306948,8.54912917 Z M10.1986977,8.54912917 L11.1401159,8.54912917 L11.1401159,9.50087083 L10.1986977,9.50087083 L10.1986977,8.54912917 Z M7.68824902,8.54912917 L8.62966727,8.54912917 L8.62966727,9.50087083 L7.68824902,9.50087083 L7.68824902,8.54912917 Z M5.25625188,8.54912917 L6.19767013,8.54912917 L6.19767013,9.50087083 L5.25625188,9.50087083 L5.25625188,8.54912917 Z M2.82425474,8.54912917 L3.76567299,8.54912917 L3.76567299,9.50087083 L2.82425474,9.50087083 L2.82425474,8.54912917 Z M15.062692,5.38333333 L16.0041102,5.38333333 L16.0041102,6.33499583 L15.062692,6.33499583 L15.062692,5.38333333 Z M12.6306948,5.38333333 L13.5721131,5.38333333 L13.5721131,6.33499583 L12.6306948,6.33499583 L12.6306948,5.38333333 Z M10.1986977,5.38333333 L11.1401159,5.38333333 L11.1401159,6.33499583 L10.1986977,6.33499583 L10.1986977,5.38333333 Z M7.68824902,5.38333333 L8.62966727,5.38333333 L8.62966727,6.33499583 L7.68824902,6.33499583 L7.68824902,5.38333333 Z M5.25625188,5.38333333 L6.19767013,5.38333333 L6.19767013,6.33499583 L5.25625188,6.33499583 L5.25625188,5.38333333 Z M2.82425474,5.38333333 L3.76567299,5.38333333 L3.76567299,6.33499583 L2.82425474,6.33499583 L2.82425474,5.38333333 Z M16.7886254,16.4666667 L2.03973954,16.4666667 C0.838725207,16.4666667 0,15.6202958 0,14.4083333 L0,3.48333333 C0,2.27137083 0.838725207,1.425 2.03973954,1.425 L4.22987064,1.425 L4.22987064,2.375 L2.03973954,2.375 C1.3622322,2.375 0.941418248,2.79965 0.941418248,3.48333333 L0.941418248,14.4083333 C0.941418248,15.0920167 1.3622322,15.5166667 2.03973954,15.5166667 L16.7886254,15.5166667 C17.4661327,15.5166667 17.8869467,15.0920167 17.8869467,14.4083333 L17.8869467,3.48333333 C17.8869467,2.79965 17.4661327,2.375 16.7886254,2.375 L14.5984943,2.375 L14.5984943,1.425 L16.7886254,1.425 C17.9896397,1.425 18.828365,2.27137083 18.828365,3.48333333 L18.828365,14.4083333 C18.828365,15.6202958 17.9896397,16.4666667 16.7886254,16.4666667 Z M6.13232001,1.425 L12.7026349,1.425 L12.7026349,2.375 L6.13232001,2.375 L6.13232001,1.425 Z"></path>
                    </g>
                </g>
            </g>
        </g>
    </g>
</svg>