<?xml version="1.0" encoding="UTF-8" standalone="no"?>
<svg width="24px" height="24px" viewBox="0 0 24 24" version="1.1" xmlns="http://www.w3.org/2000/svg" xmlns:xlink="http://www.w3.org/1999/xlink">
    <!-- Generator: Sketch 3.7 (28169) - http://www.bohemiancoding.com/sketch -->
    <title>coupon-rewards</title>
    <desc>Created with Sketch.</desc>
    <defs></defs>
    <g id="Shopping-Bag" stroke="none" stroke-width="1" fill="none" fill-rule="evenodd">
        <g id="SB-V1-coupons-and-rewards-module" transform="translate(-494.000000, -53.000000)" fill="#333333">
            <g id="right-rail-copy-10" transform="translate(343.000000, 36.000000)">
                <g id="top-sec" transform="translate(7.952239, 0.000000)">
                    <g id="coupons-&amp;-rewards" transform="translate(16.898507, 15.934783)">
                        <g id="coupon-rewards" transform="translate(126.241791, 1.065217)">
                            <path d="M0.688174512,1.64688462 C0.308187486,1.64688462 0,1.95692308 0,2.33919231 L0,5.05546154 C0,5.43773077 0.308187486,5.74776923 0.688174512,5.74776923 C1.06816154,5.74776923 1.37634902,5.43773077 1.37634902,5.05546154 L1.37634902,2.33919231 C1.37634902,1.95692308 1.06816154,1.64688462 0.688174512,1.64688462 Z M5.05762388,22.6153846 L2.35768588,22.6153846 C1.97758416,22.6153846 1.66951137,22.9254231 1.66951137,23.3076923 C1.66951137,23.6899615 1.97758416,24 2.35768588,24 L5.05762388,24 C5.43761091,24 5.74579839,23.6899615 5.74579839,23.3076923 C5.74579839,22.9254231 5.43761091,22.6153846 5.05762388,22.6153846 Z M5.22003307,0 L2.52009506,0 C2.13999334,0 1.83192055,0.309923077 1.83192055,0.692307692 C1.83192055,1.07469231 2.13999334,1.38461538 2.52009506,1.38461538 L5.22003307,1.38461538 C5.60002009,1.38461538 5.90820758,1.07469231 5.90820758,0.692307692 C5.90820758,0.309923077 5.60002009,0 5.22003307,0 Z M10.5102599,22.6153846 L7.81032193,22.6153846 C7.43022021,22.6153846 7.12214742,22.9254231 7.12214742,23.3076923 C7.12214742,23.6899615 7.43022021,24 7.81032193,24 L10.5102599,24 C10.8903617,24 11.1984344,23.6899615 11.1984344,23.3076923 C11.1984344,22.9254231 10.8903617,22.6153846 10.5102599,22.6153846 Z M7.97273111,1.38461538 L10.6726691,1.38461538 C11.0527708,1.38461538 11.3608436,1.07469231 11.3608436,0.692307692 C11.3608436,0.309923077 11.0527708,0 10.6726691,0 L7.97273111,0 C7.59262939,0 7.2845566,0.309923077 7.2845566,0.692307692 C7.2845566,1.07469231 7.59262939,1.38461538 7.97273111,1.38461538 Z M0.688174512,18.1031538 C0.308187486,18.1031538 0,18.4130769 0,18.7954615 L0,21.5117308 C0,21.894 0.308187486,22.2040385 0.688174512,22.2040385 C1.06816154,22.2040385 1.37634902,21.894 1.37634902,21.5117308 L1.37634902,18.7954615 C1.37634902,18.4130769 1.06816154,18.1031538 0.688174512,18.1031538 Z M0.688174512,7.13238462 C0.308187486,7.13238462 0,7.44230769 0,7.82469231 L0,10.5408462 C0,10.9231154 0.308187486,11.2331538 0.688174512,11.2331538 C1.06816154,11.2331538 1.37634902,10.9231154 1.37634902,10.5408462 L1.37634902,7.82469231 C1.37634902,7.44230769 1.06816154,7.13238462 0.688174512,7.13238462 Z M0.688174512,12.6177692 C0.308187486,12.6177692 0,12.9276923 0,13.3100769 L0,16.0262308 C0,16.4085 0.308187486,16.7185385 0.688174512,16.7185385 C1.06816154,16.7185385 1.37634902,16.4085 1.37634902,16.0262308 L1.37634902,13.3100769 C1.37634902,12.9276923 1.06816154,12.6177692 0.688174512,12.6177692 Z M16.1254199,0 L13.4253672,0 C13.0452654,0 12.7371927,0.309923077 12.7371927,0.692307692 C12.7371927,1.07469231 13.0452654,1.38461538 13.4253672,1.38461538 L16.1254199,1.38461538 C16.5054069,1.38461538 16.8135944,1.07469231 16.8135944,0.692307692 C16.8135944,0.309923077 16.5054069,0 16.1254199,0 Z M23.1685419,1.71276923 C22.7884402,1.71276923 22.4803674,2.02269231 22.4803674,2.40507692 L22.4803674,5.12123077 C22.4803674,5.50361538 22.7884402,5.81353846 23.1685419,5.81353846 C23.5486436,5.81353846 23.8567164,5.50361538 23.8567164,5.12123077 L23.8567164,2.40507692 C23.8567164,2.02269231 23.5486436,1.71276923 23.1685419,1.71276923 Z M21.5780559,0 L18.8781179,0 C18.4980162,0 18.1899434,0.309923077 18.1899434,0.692307692 C18.1899434,1.07469231 18.4980162,1.38461538 18.8781179,1.38461538 L21.5780559,1.38461538 C21.9580429,1.38461538 22.2662304,1.07469231 22.2662304,0.692307692 C22.2662304,0.309923077 21.9580429,0 21.5780559,0 Z M23.1685419,12.6836538 C22.7884402,12.6836538 22.4803674,12.9935769 22.4803674,13.3759615 L22.4803674,16.0921154 C22.4803674,16.4743846 22.7884402,16.7844231 23.1685419,16.7844231 C23.5486436,16.7844231 23.8567164,16.4743846 23.8567164,16.0921154 L23.8567164,13.3759615 C23.8567164,12.9935769 23.5486436,12.6836538 23.1685419,12.6836538 Z M21.4156467,22.6153846 L18.7157087,22.6153846 C18.335607,22.6153846 18.0275342,22.9254231 18.0275342,23.3076923 C18.0275342,23.6899615 18.335607,24 18.7157087,24 L21.4156467,24 C21.7956338,24 22.1038212,23.6899615 22.1038212,23.3076923 C22.1038212,22.9254231 21.7956338,22.6153846 21.4156467,22.6153846 Z M23.1685419,18.1690385 C22.7884402,18.1690385 22.4803674,18.4789615 22.4803674,18.8613462 L22.4803674,21.5775 C22.4803674,21.9597692 22.7884402,22.2698077 23.1685419,22.2698077 C23.5486436,22.2698077 23.8567164,21.9597692 23.8567164,21.5775 L23.8567164,18.8613462 C23.8567164,18.4789615 23.5486436,18.1690385 23.1685419,18.1690385 Z M23.1685419,7.19815385 C22.7884402,7.19815385 22.4803674,7.50819231 22.4803674,7.89046154 L22.4803674,10.6066154 C22.4803674,10.989 22.7884402,11.2989231 23.1685419,11.2989231 C23.5486436,11.2989231 23.8567164,10.989 23.8567164,10.6066154 L23.8567164,7.89046154 C23.8567164,7.50819231 23.5486436,7.19815385 23.1685419,7.19815385 Z M15.9630107,22.6153846 L13.262958,22.6153846 C12.8828563,22.6153846 12.5747835,22.9254231 12.5747835,23.3076923 C12.5747835,23.6899615 12.8828563,24 13.262958,24 L15.9630107,24 C16.3429977,24 16.6511852,23.6899615 16.6511852,23.3076923 C16.6511852,22.9254231 16.3429977,22.6153846 15.9630107,22.6153846 Z M12.6165327,17.5879615 C14.6637372,17.4603462 16.1022513,16.2379615 16.1022513,14.4098077 L16.1022513,14.3777308 C16.1022513,12.6962308 14.9995664,11.7813462 12.6165327,11.229 L12.6165327,7.21384615 C13.3302844,7.33615385 14.0002223,7.62565385 14.6865617,8.12676923 C14.799537,8.20730769 14.9118241,8.2395 15.0567995,8.2395 C15.3945785,8.2395 15.7057481,7.93869231 15.7057481,7.60038462 C15.7057481,7.35876923 15.5230378,7.20842308 15.3945785,7.11173077 C14.5623462,6.51265385 13.6985724,6.15611538 12.6165327,6.04119231 L12.6165327,5.4 C12.6165327,5.01761538 12.3083452,4.70769231 11.9283582,4.70769231 C11.5483712,4.70769231 11.2401837,5.01761538 11.2401837,5.4 L11.2401837,6.03207692 C9.39794053,6.24115385 8.10772801,7.46596154 8.10772801,9.07730769 L8.10772801,9.10973077 C8.10772801,10.8003462 9.09938749,11.6456538 11.2401837,12.2090769 L11.2401837,16.3630385 C10.3126392,16.1919231 9.53167577,15.7819615 8.75117118,15.1186154 C8.67076946,15.0384231 8.52590873,14.9736923 8.36510528,14.9736923 C8.02732629,14.9736923 7.75389162,15.2475 7.75389162,15.6019615 C7.75389162,15.8112692 7.85035075,15.9883846 7.99509679,16.0853077 C8.98102147,16.8701538 10.03714,17.3551154 11.2401837,17.5276154 L11.2401837,18.2001923 C11.2401837,18.5825769 11.5483712,18.8925 11.9283582,18.8925 C12.3083452,18.8925 12.6165327,18.5825769 12.6165327,18.2001923 L12.6165327,17.5879615 Z M14.8154797,14.5068462 L14.8154797,14.5389231 C14.8154797,15.5725385 13.9528529,16.3404231 12.6165327,16.4434615 L12.6165327,12.5365385 C14.3706896,13.0031538 14.8154797,13.5771923 14.8154797,14.5068462 L14.8154797,14.5068462 Z M9.37844225,8.99665385 L9.37844225,8.96446154 C9.37844225,8.07934615 10.0880649,7.35403846 11.2401837,7.18269231 L11.2401837,10.8815769 C9.76221424,10.4179615 9.37844225,9.86203846 9.37844225,8.99665385 L9.37844225,8.99665385 Z"></path>
                        </g>
                    </g>
                </g>
            </g>
        </g>
    </g>
</svg>