<?xml version="1.0" encoding="UTF-8" standalone="no"?>
<svg width="147px" height="44px" viewBox="0 0 147 44" version="1.1" xmlns="http://www.w3.org/2000/svg" xmlns:xlink="http://www.w3.org/1999/xlink">
    <!-- Generator: Sketch 3.8.3 (29802) - http://www.bohemiancoding.com/sketch -->
    <title>Group 3</title>
    <desc>Created with Sketch.</desc>
    <defs></defs>
    <g id="Guest-STS" stroke="none" stroke-width="1" fill="none" fill-rule="evenodd">
        <g transform="translate(-132.000000, -699.000000)" id="Group">
            <g transform="translate(132.000000, 697.000000)">
                <g id="Group-2">
                    <g transform="translate(0.000000, 2.000000)">
                        <g id="Group-3">
                            <path d="M32.8218141,1 C35.4718523,1 38.1720199,3.52106882 38.1720199,5.99547671 L38.1720199,11.5734104 L45.703212,11.5734104 C46.4539777,11.5734104 47.4073795,11.6584574 49.2280452,12.6746541 C49.3661955,12.751886 49.4902248,12.8514139 49.5944847,12.9688707 L55.7135783,19.8645732 C55.7735924,19.9323809 55.8267815,20.0057052 55.8724393,20.0836267 C56.9684631,21.9562696 57,23.9900421 57,24.2155316 L57,35.9382257 C57,36.6997411 56.3678506,37.3173662 55.5879015,37.3173662 L53.8724372,37.3173662 C53.4165647,40.4360626 50.6775643,42.8339282 47.3654873,42.8339282 C44.0534102,42.8339282 41.3144098,40.4360626 40.8585374,37.3173662 L37.0143345,37.3173662 C35.9757361,38.6652462 34.3690033,39.6159337 32.744384,39.6159337 L19.1385796,39.6159337 C18.0018403,41.5391451 15.8787502,42.8339282 13.4457044,42.8339282 C11.0126587,42.8339282 8.88956862,41.5391451 7.75259398,39.6159337 L5.86626573,39.6159337 C3.38050166,39.6159337 0.751409596,36.8119112 0.751409596,34.1609734 L0.751409596,6.07109958 C0.751409596,3.51187455 3.40144779,1 6.10138013,1 L32.8218141,1 Z M51.1162562,36.3979392 C51.1162562,34.370143 49.4337409,32.7202313 47.3654873,32.7202313 C45.2972336,32.7202313 43.6147183,34.370143 43.6147183,36.3979392 C43.6147183,38.4257355 45.2972336,40.0756472 47.3654873,40.0756472 C49.4337409,40.0756472 51.1162562,38.4257355 51.1162562,36.3979392 Z M47.3654873,29.9619503 C50.343603,29.9619503 52.8580797,31.9010218 53.6665061,34.5590853 L54.175803,34.5590853 L54.175803,24.2210481 C54.175803,24.2065672 54.1555629,22.7922586 53.482698,21.5618354 L47.6220185,14.9573615 C46.4520949,14.3316914 45.9870438,14.3316914 45.703212,14.3316914 L38.1720199,14.3316914 L38.1720199,34.1605137 C38.1720199,34.2936007 38.1637827,34.4264579 38.1515445,34.5590853 L41.0644684,34.5590853 C41.8728948,31.9010218 44.3873715,29.9619503 47.3654873,29.9619503 Z M17.1964734,36.3979392 C17.1964734,34.370143 15.5139581,32.7202313 13.4457044,32.7202313 C11.3774508,32.7202313 9.69470012,34.370143 9.69470012,36.3979392 C9.69470012,38.4257355 11.3769801,40.0756472 13.4457044,40.0756472 C15.5137227,40.0756472 17.1964734,38.4257355 17.1964734,36.3979392 Z M5.86603038,36.8576527 L6.88909574,36.8576527 C6.87803431,36.7057174 6.87050311,36.5526328 6.87050311,36.3979392 C6.87050311,32.8434345 9.81425779,29.9619503 13.4457044,29.9619503 C17.0771511,29.9619503 20.0206704,32.8434345 20.0206704,36.3979392 C20.0206704,36.5526328 20.0131392,36.7057174 20.0020778,36.8576527 L32.7446193,36.8576527 C34.001387,36.8576527 35.3478229,35.2746293 35.3478229,34.1605137 L35.3478229,5.99547671 C35.3478229,5.03375608 33.9077178,3.75828098 32.8218141,3.75828098 L6.10138013,3.75828098 C4.99217675,3.75828098 3.5756066,5.05513275 3.5756066,6.07109958 L3.5756066,34.1609734 C3.5756066,35.5040263 5.14609549,36.8576527 5.86603038,36.8576527 Z" id="truck" fill="#888888"></path>
                            <path d="M143.041667,0.6 L100.958333,0.6 C98.5908333,0.6 97,2.19083333 97,4.55833333 L97,11.6416667 C97,13.3770833 98.0085417,14.7808333 99.5,15.3383333 L99.5,40.1833333 C99.5,42.4008333 101.057708,43.725 103.666667,43.725 L140.958333,43.725 C143.506875,43.725 144.5,42.76125 144.5,40.2875 L144.5,15.3383333 C145.991458,14.7808333 147,13.3770833 147,11.6416667 L147,4.35 C147,2.036875 145.483333,0.6 143.041667,0.6 L143.041667,0.6 Z M108.666667,41.225 L108.666667,22.8485417 C108.666667,22.32 108.834375,21.4333333 109.9575,21.4333333 L120.75,21.4333333 L120.75,41.225 L108.666667,41.225 L108.666667,41.225 Z M123.25,21.4333333 L133.785,21.4333333 C134.491458,21.4333333 135.333333,21.6560417 135.333333,22.7175 L135.333333,41.225 L123.25,41.225 L123.25,21.4333333 L123.25,21.4333333 Z M141.92625,41.1391667 C141.833125,41.1702083 141.581042,41.225 140.958333,41.225 L137.833333,41.225 L137.833333,22.7175 C137.833333,20.489375 136.16875,18.9333333 133.785,18.9333333 L109.9575,18.9333333 C107.725417,18.9333333 106.166667,20.5433333 106.166667,22.8485417 L106.166667,41.225 L103.666667,41.225 C102,41.225 102,40.598125 102,40.1833333 L102,15.6 L142,15.6 L142,40.2875 C142,40.825625 141.953958,41.051875 141.92625,41.1391667 L141.92625,41.1391667 Z M144.5,11.6416667 C144.5,12.3675 144.049167,13.1 143.041667,13.1 L100.958333,13.1 C99.9510417,13.1 99.5,12.3675 99.5,11.6416667 L99.5,4.55833333 C99.5,3.57708333 99.9770833,3.1 100.958333,3.1 L143.041667,3.1 C144.387292,3.1 144.5,3.74520833 144.5,4.35 L144.5,11.6416667 L144.5,11.6416667 Z" id="store-services" fill="#888888"></path>
                            <path d="M86.6877195,29.828275 C86.390083,29.828275 86.0923301,29.7146405 85.8652936,29.4876039 L74.9205511,18.5428614 C74.4663617,18.088672 74.4663617,17.352199 74.9205511,16.8980096 C75.3747404,16.4439366 76.1112134,16.4438203 76.5654028,16.8980096 L86.6877195,27.02021 L96.8099199,16.8980096 C97.2642255,16.4439366 98.0005822,16.4439366 98.4548879,16.8980096 C98.9090773,17.352199 98.9090773,18.088672 98.4548879,18.5428614 L87.5101454,29.4876039 C87.2829925,29.7146405 86.9854723,29.828275 86.6877195,29.828275" id="right-arrow-small" fill="#888888" transform="translate(86.687719, 23.192843) rotate(-90.000000) translate(-86.687719, -23.192843) "></path>
                            <path d="M66,23.35 L90.8529412,23.35" id="Line" stroke="#888888" stroke-width="2.7" stroke-linecap="square"></path>
                        </g>
                    </g>
                </g>
            </g>
        </g>
    </g>
</svg>